
		{
			
			"id": "dark",
			"name": "dark",
			"font_family": "Soleil",
			"font_dowload_url": "https://fonts.google.com/download?family=Soleil"
		,
			"styles": 
			[
	  			
		  
					
		{
  			"key": "primaryColor",
  			"type": "color",
  			"value": "#DBDBDB"
  		}
		,
					
					
		{
  			"key": "background",
  			"type": "color",
  			"value": "#050709"
  		}
		,
					
					
		{
  			"key": "surface",
  			"type": "color",
  			"value": "#000000"
  		}
		,
					
					
		{
  			"key": "activityDetailBackground",
  			"type": "color",
  			"value": "#0F0F0F"
  		}
		,
					
					
		{
  			"key": "primaryButton",
  			"type": "color",
  			"value": "#DBDBDB"
  		}
		,
					
					
		{
  			"key": "onPrimaryButton",
  			"type": "color",
  			"value": "#000000"
  		}
		,
					
					
		{
  			"key": "disabledButton",
  			"type": "color",
  			"value": "#424242"
  		}
		,
					
					
		{
  			"key": "onDisabledButton",
  			"type": "color",
  			"value": "#000000"
  		}
		,
					
					
		{
  			"key": "secondaryButton",
  			"type": "color",
  			"value": "#000000"
  		}
		,
					
					
		{
  			"key": "onSecondaryButton",
  			"type": "color",
  			"value": "#DBDBDB"
  		}
		,
					
					
		{
  			"key": "primaryButtonBorder",
  			"type": "color",
  			"value": "#DBDBDB"
  		}
		,
					
					
		{
  			"key": "secondaryButtonBorder",
  			"type": "color",
  			"value": "#DBDBDB"
  		}
		,
					
					
		{
  			"key": "disabledButtonBorder",
  			"type": "color",
  			"value": "#424242"
  		}
		,
					
					
		{
  			"key": "disableWatchButonBorder",
  			"type": "color",
  			"value": "#221E1D"
  		}
		,
					
					
		{
  			"key": "complicationBackground",
  			"type": "color",
  			"value": "#9C9C9C"
  		}
		,
					
					
		{
  			"key": "tutorialText",
  			"type": "color",
  			"value": "#000000"
  		}
		,
					
					
		{
  			"key": "primaryText",
  			"type": "color",
  			"value": "#DBDBDB"
  		}
		,
					
					
		{
  			"key": "secondaryText",
  			"type": "color",
  			"value": "#8D8D8D"
  		}
		,
					
					
		{
  			"key": "placeholderText",
  			"type": "color",
  			"value": "#8C8C8C"
  		}
		,
					
					
		{
  			"key": "error",
  			"type": "color",
  			"value": "#D22B20"
  		}
		,
					
					
		{
  			"key": "success",
  			"type": "color",
  			"value": "#419448"
  		}
		,
					
					
		{
  			"key": "delete",
  			"type": "color",
  			"value": "#D22B20"
  		}
		,
					
					
		{
  			"key": "dianaStepsTab",
  			"type": "color",
  			"value": "#509889"
  		}
		,
					
					
		{
  			"key": "onDianaStepsTab",
  			"type": "color",
  			"value": "#000000"
  		}
		,
					
					
		{
  			"key": "dianaActiveMinutesTab",
  			"type": "color",
  			"value": "#C79500"
  		}
		,
					
					
		{
  			"key": "onDianaActiveMinutesTab",
  			"type": "color",
  			"value": "#000000"
  		}
		,
					
					
		{
  			"key": "dianaActiveCaloriesTab",
  			"type": "color",
  			"value": "#6A8A19"
  		}
		,
					
					
		{
  			"key": "onDianaActiveCaloriesTab",
  			"type": "color",
  			"value": "#000000"
  		}
		,
					
					
		{
  			"key": "dianaHeartRateTab",
  			"type": "color",
  			"value": "#D03F33"
  		}
		,
					
					
		{
  			"key": "onDianaHeartRateTab",
  			"type": "color",
  			"value": "#000000"
  		}
		,
					
					
		{
  			"key": "dianaSleepTab",
  			"type": "color",
  			"value": "#495C77"
  		}
		,
					
					
		{
  			"key": "onDianaSleepTab",
  			"type": "color",
  			"value": "#000000"
  		}
		,
					
					
		{
  			"key": "dianaInactiveTab",
  			"type": "color",
  			"value": "#101113"
  		}
		,
					
					
		{
  			"key": "onDianaInactiveTab",
  			"type": "color",
  			"value": "#424242"
  		}
		,
					
					
		{
  			"key": "dianaStepsRing",
  			"type": "color",
  			"value": "#509889"
  		}
		,
					
					
		{
  			"key": "dianaActiveMinuteRing",
  			"type": "color",
  			"value": "#C79500"
  		}
		,
					
					
		{
  			"key": "dianaActiveCaloriesRing",
  			"type": "color",
  			"value": "#6A8A19"
  		}
		,
					
					
		{
  			"key": "dianaSleepRing",
  			"type": "color",
  			"value": "#495C77"
  		}
		,
					
					
		{
  			"key": "dianaUnfilledRing",
  			"type": "color",
  			"value": "#101113"
  		}
		,
					
					
		{
  			"key": "hybridStepsTab",
  			"type": "color",
  			"value": "#509889"
  		}
		,
					
					
		{
  			"key": "onHybridStepsTab",
  			"type": "color",
  			"value": "#000000"
  		}
		,
					
					
		{
  			"key": "hybridActiveCaloriesTab",
  			"type": "color",
  			"value": "#6A8A19"
  		}
		,
					
					
		{
  			"key": "onHybridActiveCaloriesTab",
  			"type": "color",
  			"value": "#000000"
  		}
		,
					
					
		{
  			"key": "hybridSleepTab",
  			"type": "color",
  			"value": "#495C77"
  		}
		,
					
					
		{
  			"key": "onHybridSleepTab",
  			"type": "color",
  			"value": "#000000"
  		}
		,
					
					
		{
  			"key": "hybridGoalTrackingTab",
  			"type": "color",
  			"value": "#DB672A"
  		}
		,
					
					
		{
  			"key": "onHybridGoalTrackingTab",
  			"type": "color",
  			"value": "#000000"
  		}
		,
					
					
		{
  			"key": "hybridInactiveTab",
  			"type": "color",
  			"value": "#101113"
  		}
		,
					
					
		{
  			"key": "onHybridInactiveTab",
  			"type": "color",
  			"value": "#424242"
  		}
		,
					
					
		{
  			"key": "hybridStepsRing",
  			"type": "color",
  			"value": "#509889"
  		}
		,
					
					
		{
  			"key": "hybridActiveCaloriesRing",
  			"type": "color",
  			"value": "#6A8A19"
  		}
		,
					
					
		{
  			"key": "hybridSleepRing",
  			"type": "color",
  			"value": "#495C77"
  		}
		,
					
					
		{
  			"key": "hybridGoalTrackingRing",
  			"type": "color",
  			"value": "#DB672A"
  		}
		,
					
					
		{
  			"key": "hybridUnfilledRing",
  			"type": "color",
  			"value": "#101113"
  		}
		,
					
					
		{
  			"key": "maxHeartRate",
  			"type": "color",
  			"value": "#D03F33"
  		}
		,
					
					
		{
  			"key": "lowestHeartRate",
  			"type": "color",
  			"value": "#EE8953"
  		}
		,
					
					
		{
  			"key": "aboveAverageRestingHeartRate",
  			"type": "color",
  			"value": "#D03F33"
  		}
		,
					
					
		{
  			"key": "averageRestingHeartRate",
  			"type": "color",
  			"value": "#EA6954"
  		}
		,
					
					
		{
  			"key": "disabledCalendarDay",
  			"type": "color",
  			"value": "#333333"
  		}
		,
					
					
		{
  			"key": "nonReachGoal",
  			"type": "color",
  			"value": "#A7A7A7"
  		}
		,
					
					
		{
  			"key": "lineColor",
  			"type": "color",
  			"value": "#202323"
  		}
		,
					
					
		{
  			"key": "lightSleep",
  			"type": "color",
  			"value": "#495C77"
  		}
		,
					
					
		{
  			"key": "deepSleep",
  			"type": "color",
  			"value": "#1F2F5B"
  		}
		,
					
					
		{
  			"key": "awakeSleep",
  			"type": "color",
  			"value": "#DB672A"
  		}
		,
					
					
		{
  			"key": "nonBrandSeparatorLine",
  			"type": "color",
  			"value": "#1D1D1D"
  		}
		,
					
					
		{
  			"key": "nonBrandDisableCalendarDay",
  			"type": "color",
  			"value": "#292929"
  		}
		,
					
					
		{
  			"key": "nonBrandAsphaltGray",
  			"type": "color",
  			"value": "#B4B4B4"
  		}
		,
					
					
		{
  			"key": "nonBrandCoolGray",
  			"type": "color",
  			"value": "#5C5457"
  		}
		,
					
					
		{
  			"key": "nonBrandSwitchDisabledGray",
  			"type": "color",
  			"value": "#222222"
  		}
		,
					
					
		{
  			"key": "nonBrandBlack",
  			"type": "color",
  			"value": "#FFFFFF"
  		}
		,
					
					
		{
  			"key": "nonBrandRightDisableButtonBG",
  			"type": "color",
  			"value": "#161616"
  		}
		,
					
					
		{
  			"key": "nonBrandRed",
  			"type": "color",
  			"value": "#D25A5A"
  		}
		,
					
					
		{
  			"key": "nonBrandTitleLowBatteryProfile",
  			"type": "color",
  			"value": "#363C3C"
  		}
		,
					
					
		{
  			"key": "nonBrandLowBatteryHomeBG",
  			"type": "color",
  			"value": "#363C3C"
  		}
		
					
		,
	  			
		  
					
		{
	  		"key": "headline0",
	  		"type": "font",
	  		"value": {
				"fileName": "Soleil-Bold",
				"postScriptName": "Soleil-Bold"
	  		}
  		}
		,
					
					
		{
	  		"key": "headline1",
	  		"type": "font",
	  		"value": {
	  			"fileName": "Soleil-Bold",
	  			"postScriptName": "Soleil-Bold"
	  		}
  		}
		,
					
					
		{
	  		"key": "headline2",
	  		"type": "font",
	  		"value": {
	  			"fileName": "Soleil-Bold",
	  			"postScriptName": "Soleil-Bold"
	  		}
  		}
		,
					
					
		{
	  		"key": "headline3",
	  		"type": "font",
	  		"value": {
	  			"fileName": "Soleil-Bold",
	  			"postScriptName": "Soleil-Bold"
	  		}
  		}
		,
					
					
		{
	  		"key": "descriptionText1",
	  		"type": "font",
	  		"value": {
	  			"fileName": "Soleil-Regular",
	  			"postScriptName": "Soleil"
	  		}
  		}
		,
					
					
		{
	  		"key": "descriptionText2",
	  		"type": "font",
	  		"value": {
	  			"fileName": "Soleil-Regular",
	  			"postScriptName": "Soleil"
	  		}
  		}
		,
					
					
		{
	  		"key": "descriptionText3",
	  		"type": "font",
	  		"value": {
	  			"fileName": "Soleil-Regular",
	  			"postScriptName": "Soleil"
	  		}
  		}
		,
					
					
		{
	  		"key": "descriptionText4",
	  		"type": "font",
	  		"value": {
	  			"fileName": "Soleil-Semibold",
	  			"postScriptName": "SoleilSb"
	  		}
  		}
		,
					
					
		{
	  		"key": "stats",
	  		"type": "font",
	  		"value": {
	  			"fileName": "Soleil-Bold",
	  			"postScriptName": "Soleil-Bold"
	  		}
  		}
		,
					
					
		{
	  		"key": "statsUnits",
	  		"type": "font",
	  		"value": {
	  			"fileName": "Soleil-Bold",
	  			"postScriptName": "Soleil-Bold"
	  		}
  		}
		,
					
					
		{
	  		"key": "statsDescription",
	  		"type": "font",
	  		"value": {
	  			"fileName": "Soleil-Semibold",
	  			"postScriptName": "SoleilSb"
	  		}
  		}
		,
					
					
		{
	  		"key": "calendarMode",
	  		"type": "font",
	  		"value": {
	  			"fileName": "Soleil-Semibold",
	  			"postScriptName": "SoleilSb"
	  		}
  		}
		,
					
					
		{
	  		"key": "calendarDate",
	  		"type": "font",
	  		"value": {
	  			"fileName": "Soleil-Semibold",
	  			"postScriptName": "SoleilSb"
	  		}
  		}
		,
					
					
		{
	  		"key": "calendarWeekDay",
	  		"type": "font",
	  		"value": {
	  			"fileName": "Soleil-Regular",
	  			"postScriptName": "Soleil"
	  		}
  		}
		,
					
					
		{
	  		"key": "calendarDay",
	  		"type": "font",
	  		"value": {
	  			"fileName": "Soleil-Regular",
	  			"postScriptName": "Soleil"
	  		}
  		}
		,
					
					
		{
	  		"key": "weekly",
	  		"type": "font",
	  		"value": {
	  			"fileName": "Soleil-Semibold",
	  			"postScriptName": "SoleilSb"
	  		}
  		}
		,
					
					
		{
	  		"key": "weeklyStats",
	  		"type": "font",
	  		"value": {
	  			"fileName": "Soleil-Semibold",
	  			"postScriptName": "SoleilSb"
	  		}
  		}
		,
					
					
		{
	  		"key": "weeklyDay",
	  		"type": "font",
	  		"value": {
	  			"fileName": "Soleil-Semibold",
	  			"postScriptName": "SoleilSb"
	  		}
  		}
		,
					
					
		{
	  		"key": "weeklyDate",
	  		"type": "font",
	  		"value": {
	  			"fileName": "Soleil-Bold",
	  			"postScriptName": "Soleil-Bold"
	  		}
  		}
		,
					
					
		{
	  		"key": "weeklyDayStats",
	  		"type": "font",
	  		"value": {
	  			"fileName": "Soleil-Semibold",
	  			"postScriptName": "SoleilSb"
	  		}
  		}
		,
					
					
		{
	  		"key": "weeklyDayStatsDescription",
	  		"type": "font",
	  		"value": {
	  			"fileName": "Soleil-Regular",
	  			"postScriptName": "Soleil"
	  		}
  		}
		,
					
					
		{
	  		"key": "chartViewMore",
	  		"type": "font",
	  		"value": {
	  			"fileName": "Soleil-Regular",
	  			"postScriptName": "Soleil"
	  		}
  		}
		,
					
					
		{
	  		"key": "nameActivity",
	  		"type": "font",
	  		"value": {
	  			"fileName": "Soleil-Bold",
	  			"postScriptName": "Soleil-Bold"
	  		}
  		}
		,
					
					
		{
	  		"key": "activityDetailStats",
	  		"type": "font",
	  		"value": {
	  			"fileName": "Soleil-Bold",
	  			"postScriptName": "Soleil-Bold"
	  		}
  		}
		,
					
					
		{
	  		"key": "activityDetailDistance",
	  		"type": "font",
	  		"value": {
	  			"fileName": "Soleil-Regular",
	  			"postScriptName": "Soleil"
	  		}
  		}
		,
					
					
		{
	  		"key": "activityDetailPercentage",
	  		"type": "font",
	  		"value": {
	  			"fileName": "Soleil-Bold",
	  			"postScriptName": "Soleil-Bold"
	  		}
  		}
		,
					
					
		{
	  		"key": "recordedActivities",
	  		"type": "font",
	  		"value": {
	  			"fileName": "Soleil-Book",
	  			"postScriptName": "SoleilBk"
	  		}
  		}
		,
					
					
		{
	  		"key": "sleepChartStats",
	  		"type": "font",
	  		"value": {
	  			"fileName": "Soleil-Semibold",
	  			"postScriptName": "SoleilSb"
	  		}
  		}
		,
					
					
		{
	  		"key": "sleepChartDetails",
	  		"type": "font",
	  		"value": {
	  			"fileName": "Soleil-Semibold",
	  			"postScriptName": "SoleilSb"
	  		}
  		}
		,
					
					
		{
	  		"key": "complicationStats",
	  		"type": "font",
	  		"value": {
	  			"fileName": "Soleil-Bold",
	  			"postScriptName": "Soleil-Bold"
	  		}
  		}
		,
					
					
		{
	  		"key": "complicationCategory",
	  		"type": "font",
	  		"value": {
	  			"fileName": "Soleil-Bold",
	  			"postScriptName": "Soleil-Bold"
	  		}
  		}
		,
					
					
		{
	  		"key": "complicationName",
	  		"type": "font",
	  		"value": {
	  			"fileName": "Soleil-Regular",
	  			"postScriptName": "Soleil"
	  		}
  		}
		,
					
					
		{
	  		"key": "complicationTitle",
	  		"type": "font",
	  		"value": {
	  			"fileName": "Soleil-Bold",
	  			"postScriptName": "Soleil-Bold"
	  		}
  		}
		,
					
					
		{
	  		"key": "newPresetText",
	  		"type": "font",
	  		"value": {
	  			"fileName": "Soleil-Semibold",
	  			"postScriptName": "SoleilSb"
	  		}
  		}
		,
					
					
		{
	  		"key": "textButtonPrimary",
	  		"type": "font",
	  		"value": {
	  			"fileName": "Soleil-Bold",
	  			"postScriptName": "Soleil-Bold"
	  		}
  		}
		,
					
					
		{
	  		"key": "textButtonDisable",
	  		"type": "font",
	  		"value": {
	  			"fileName": "Soleil-Bold",
	  			"postScriptName": "Soleil-Bold"
	  		}
  		}
		,
					
					
		{
	  		"key": "textButtonSecondary",
	  		"type": "font",
	  		"value": {
	  			"fileName": "Soleil-Bold",
	  			"postScriptName": "Soleil-Bold"
	  		}
  		}
		,
					
					
		{
	  		"key": "checkBox",
	  		"type": "font",
	  		"value": {
	  			"fileName": "Soleil-Semibold",
	  			"postScriptName": "SoleilSb"
	  		}
  		}
		,
					
					
		{
	  		"key": "deviceName",
	  		"type": "font",
	  		"value": {
	  			"fileName": "Soleil-Bold",
	  			"postScriptName": "Soleil-Bold"
	  		}
  		}
		,
					
					
		{
	  		"key": "deviceSerialNumber",
	  		"type": "font",
	  		"value": {
	  			"fileName": "Soleil-Regular",
	  			"postScriptName": "Soleil"
	  		}
  		}
		,
					
					
		{
	  		"key": "placeHolder",
	  		"type": "font",
	  		"value": {
	  			"fileName": "Soleil-Regular",
	  			"postScriptName": "Soleil"
	  		}
  		}
		,
					
					
		{
	  		"key": "cellInput",
	  		"type": "font",
	  		"value": {
	  			"fileName": "Soleil-Regular",
	  			"postScriptName": "Soleil"
	  		}
  		}
		,
					
					
		{
	  		"key": "popupTitle",
	  		"type": "font",
	  		"value": {
	  			"fileName": "Soleil-Bold",
	  			"postScriptName": "Soleil-Bold"
	  		}
  		}
		,
					
					
		{
	  		"key": "popupDescription",
	  		"type": "font",
	  		"value": {
	  			"fileName": "Soleil-Regular",
	  			"postScriptName": "Soleil"
	  		}
  		}
		,
					
					
		{
	  		"key": "popupInput",
	  		"type": "font",
	  		"value": {
	  			"fileName": "Soleil-Regular",
	  			"postScriptName": "Soleil"
	  		}
  		}
		,
					
					
		{
	  		"key": "popupAction",
	  		"type": "font",
	  		"value": {
	  			"fileName": "Soleil-Semibold",
	  			"postScriptName": "SoleilSb"
	  		}
  		}
		,
					
					
		{
	  		"key": "popupError",
	  		"type": "font",
	  		"value": {
	  			"fileName": "Soleil-Bold",
	  			"postScriptName": "Soleil-Bold"
	  		}
  		}
		,
					
					
		{
	  		"key": "error",
	  		"type": "font",
	  		"value": {
	  			"fileName": "Soleil-Bold",
	  			"postScriptName": "Soleil-Bold"
	  		}
  		}
		,
					
					
		{
	  		"key": "alertTime",
	  		"type": "font",
	  		"value": {
	  			"fileName": "Soleil-Regular",
	  			"postScriptName": "Soleil"
	  		}
  		}
		,
					
					
		{
	  		"key": "alertOption",
	  		"type": "font",
	  		"value": {
	  			"fileName": "Soleil-Semibold",
	  			"postScriptName": "SoleilSb"
	  		}
  		}
		,
					
					
		{
	  		"key": "setGoalNumber",
	  		"type": "font",
	  		"value": {
	  			"fileName": "Soleil-Light",
	  			"postScriptName": "SoleilLt"
	  		}
  		}
		,
					
					
		{
	  		"key": "setGoalHour",
	  		"type": "font",
	  		"value": {
	  			"fileName": "Soleil-Light",
	  			"postScriptName": "SoleilLt"
	  		}
  		}
		,
					
					
		{
	  		"key": "goalNumber",
	  		"type": "font",
	  		"value": {
	  			"fileName": "Soleil-Bold",
	  			"postScriptName": "Soleil-Bold"
	  		}
  		}
		,
					
					
		{
	  		"key": "goalHour",
	  		"type": "font",
	  		"value": {
	  			"fileName": "Soleil-Bold",
	  			"postScriptName": "Soleil-Bold"
	  		}
  		}
		,
					
					
		{
	  		"key": "goalNumberDescription",
	  		"type": "font",
	  		"value": {
	  			"fileName": "Soleil-Semibold",
	  			"postScriptName": "SoleilSb"
	  		}
  		}
		,
					
					
		{
	  		"key": "goalNumberTime",
	  		"type": "font",
	  		"value": {
	  			"fileName": "Soleil-Regular",
	  			"postScriptName": "Soleil"
	  		}
  		}
		,
					
					
		{
	  		"key": "profileName",
	  		"type": "font",
	  		"value": {
	  			"fileName": "Soleil-Bold",
	  			"postScriptName": "Soleil-Bold"
	  		}
  		}
		,
					
					
		{
	  		"key": "profileDescription",
	  		"type": "font",
	  		"value": {
	  			"fileName": "Soleil-Semibold",
	  			"postScriptName": "SoleilSb"
	  		}
  		}
		,
					
					
		{
	  		"key": "pulltoSyncMessage",
	  		"type": "font",
	  		"value": {
	  			"fileName": "Soleil-Regular",
	  			"postScriptName": "Soleil"
	  		}
  		}
		,
					
					
		{
	  		"key": "pullToSyncDeviceName",
	  		"type": "font",
	  		"value": {
	  			"fileName": "Soleil-Semibold",
	  			"postScriptName": "SoleilSb"
	  		}
  		}
		,
					
					
		{
	  		"key": "pullToSyncDescription",
	  		"type": "font",
	  		"value": {
	  			"fileName": "Soleil-Bold",
	  			"postScriptName": "Soleil-Bold"
	  		}
  		}
		,
					
					
		{
	  		"key": "pullToSyncTime",
	  		"type": "font",
	  		"value": {
	  			"fileName": "Soleil-Regular",
	  			"postScriptName": "Soleil"
	  		}
  		}
		,
					
					
		{
	  		"key": "nonBrandTextStyle",
	  		"type": "font",
	  		"value": {
	  			"fileName": "Soleil-Semibold",
	  			"postScriptName": "SoleilSb"
	  		}
  		}
		,
					
					
		{
	  		"key": "nonBrandTextStyle2",
	  		"type": "font",
	  		"value": {
	  			"fileName": "Soleil-Regular",
	  			"postScriptName": "Soleil"
	  		}
  		}
		,
					
					
		{
	  		"key": "nonBrandTextStyle3",
	  		"type": "font",
	  		"value": {
	  			"fileName": "Soleil-Regular",
	  			"postScriptName": "Soleil"
	  		}
  		}
		,
					
					
		{
	  		"key": "nonBrandTextStyle4",
	  		"type": "font",
	  		"value": {
	  			"fileName": "Soleil-Semibold",
	  			"postScriptName": "SoleilSb"
	  		}
  		}
		,
					
					
		{
	  		"key": "nonBrandTextStyle5",
	  		"type": "font",
	  		"value": {
	  			"fileName": "Soleil-Semibold",
	  			"postScriptName": "SoleilSb"
	  		}
  		}
		,
					
					
		{
	  		"key": "nonBrandTextStyle6",
	  		"type": "font",
	  		"value": {
	  			"fileName": "Soleil-Bold",
	  			"postScriptName": "Soleil-Bold"
	  		}
  		}
		,
					
					
		{
	  		"key": "nonBrandTextStyleS7",
	  		"type": "font",
	  		"value": {
	  			"fileName": "Soleil-Regular",
	  			"postScriptName": "Soleil"
	  		}
  		}
		,
					
					
		{
	  		"key": "nonBrandTextStyle11pt",
	  		"type": "font",
	  		"value": {
	  			"fileName": "Soleil-Regular",
	  			"postScriptName": "Soleil"
	  		}
  		}
		,
					
					
		{
	  		"key": "nonBrandTextStyle12pt",
	  		"type": "font",
	  		"value": {
	  			"fileName": "Soleil-Book",
	  			"postScriptName": "SoleilBk"
	  		}
  		}
		,
					
					
		{
	  		"key": "nonBrandTextStyleSb13pt",
	  		"type": "font",
	  		"value": {
	  			"fileName": "Soleil-Semibold",
	  			"postScriptName": "SoleilSb"
	  		}
  		}
		,
					
					
		{
	  		"key": "nonBrandTextStyle8",
	  		"type": "font",
	  		"value": {
	  			"fileName": "Soleil-Semibold",
	  			"postScriptName": "SoleilSb"
	  		}
  		}
		,
					
					
		{
	  		"key": "nonBrandTextStyle9",
	  		"type": "font",
	  		"value": {
	  			"fileName": "Soleil-Regular",
	  			"postScriptName": "Soleil"
	  		}
  		}
		,
					
					
		{
	  		"key": "nonBrandTextStyle10",
	  		"type": "font",
	  		"value": {
	  			"fileName": "Soleil-Semibold",
	  			"postScriptName": "SoleilSb"
	  		}
  		}
		,
					
					
		{
	  		"key": "nonBrandTextStyle11",
	  		"type": "font",
	  		"value": {
	  			"fileName": "Soleil-Regular",
	  			"postScriptName": "Soleil"
	  		}
  		}
		,
					
					
		{
	  		"key": "nonBrandTextStyle12",
	  		"type": "font",
	  		"value": {
	  			"fileName": "Soleil-Book",
	  			"postScriptName": "SoleilBk"
	  		}
  		}
		
					
		
	  		]
	  	}
		
